/home/janakarajan/ofconflictd/impl/src/main/yang-gen-config/org/opendaylight/yang/gen/v1/urn/opendaylight/params/xml/ns/yang/ofconflictd/impl/rev141210/AbstractOfconflictdModuleFactory.java
/home/janakarajan/ofconflictd/impl/target/generated-classes/mdsal-binding/org/opendaylight/yang/gen/v1/urn/opendaylight/params/xml/ns/yang/ofconflictd/impl/rev141210/$YangModuleInfoImpl.java
/home/janakarajan/ofconflictd/impl/src/main/yang-gen-config/org/opendaylight/yang/gen/v1/urn/opendaylight/params/xml/ns/yang/ofconflictd/impl/rev141210/AbstractOfconflictdModule.java
/home/janakarajan/ofconflictd/impl/target/generated-classes/mdsal-binding/org/opendaylight/yang/gen/v1/urn/opendaylight/params/xml/ns/yang/ofconflictd/impl/rev141210/Ofconflictd.java
/home/janakarajan/ofconflictd/impl/src/main/java/org/opendaylight/ofconflictd/impl/OfconflictdModule.java
/home/janakarajan/ofconflictd/impl/src/main/java/org/opendaylight/yang/gen/v1/urn/opendaylight/params/xml/ns/yang/ofconflictd/impl/rev141210/OfconflictdModuleFactory.java
/home/janakarajan/ofconflictd/impl/target/generated-classes/mdsal-binding/org/opendaylight/yang/gen/v1/urn/opendaylight/params/xml/ns/yang/ofconflictd/impl/rev141210/$YangModelBindingProvider.java
/home/janakarajan/ofconflictd/impl/target/generated-classes/mdsal-binding/org/opendaylight/yang/gen/v1/urn/opendaylight/params/xml/ns/yang/ofconflictd/impl/rev141210/modules/module/configuration/OfconflictdBuilder.java
/home/janakarajan/ofconflictd/impl/src/main/java/org/opendaylight/yang/gen/v1/urn/opendaylight/params/xml/ns/yang/ofconflictd/impl/rev141210/OfconflictdModule.java
/home/janakarajan/ofconflictd/impl/src/main/java/org/opendaylight/ofconflictd/impl/OfconflictdProvider.java
/home/janakarajan/ofconflictd/impl/target/generated-classes/mdsal-binding/org/opendaylight/yang/gen/v1/urn/opendaylight/params/xml/ns/yang/ofconflictd/impl/rev141210/modules/module/configuration/ofconflictd/Broker.java
/home/janakarajan/ofconflictd/impl/target/generated-classes/mdsal-binding/org/opendaylight/yang/gen/v1/urn/opendaylight/params/xml/ns/yang/ofconflictd/impl/rev141210/modules/module/configuration/ofconflictd/BrokerBuilder.java
/home/janakarajan/ofconflictd/impl/target/generated-classes/mdsal-binding/org/opendaylight/yang/gen/v1/urn/opendaylight/params/xml/ns/yang/ofconflictd/impl/rev141210/modules/module/configuration/Ofconflictd.java
/home/janakarajan/ofconflictd/impl/src/main/yang-gen-config/org/opendaylight/yang/gen/v1/urn/opendaylight/params/xml/ns/yang/ofconflictd/impl/rev141210/OfconflictdModuleMXBean.java
